^C:\USERS\SZYMON\DESKTOP\PAMSI\DRZEWO\DRZEWO\ŹRÓDŁO.CPP
C:\USERS\SZYMON\DESKTOP\PAMSI\DRZEWO\DRZEWO\DEBUG\VC141.PDB
C:\USERS\SZYMON\DESKTOP\PAMSI\DRZEWO\DRZEWO\DEBUG\VC141.IDB
C:\USERS\SZYMON\DESKTOP\PAMSI\DRZEWO\DRZEWO\DEBUG\ŹRóDłO.OBJ
