^C:\USERS\SZYMON\DESKTOP\PAMSI\DRZEWO_BINARNE\DRZEWO_BINARNE\ŹRÓDŁO.CPP
C:\USERS\SZYMON\DESKTOP\PAMSI\DRZEWO_BINARNE\DRZEWO_BINARNE\DEBUG\VC141.PDB
C:\USERS\SZYMON\DESKTOP\PAMSI\DRZEWO_BINARNE\DRZEWO_BINARNE\DEBUG\VC141.IDB
C:\USERS\SZYMON\DESKTOP\PAMSI\DRZEWO_BINARNE\DRZEWO_BINARNE\DEBUG\ŹRóDłO.OBJ
